\relax 
\@writefile{toc}{\contentsline {section}{\numberline {1}Przeznaczenie}{1}}
\@writefile{toc}{\contentsline {section}{\numberline {2}Wywo\IeC {\l }anie}{1}}
\@writefile{toc}{\contentsline {section}{\numberline {3}Format danych}{2}}
\@writefile{toc}{\contentsline {section}{\numberline {4}Format danych}{2}}
\@writefile{toc}{\contentsline {section}{\numberline {5}SCENARIUSZ DZIA\IeC {\L }ANIA PROGRAMU}{2}}
