\relax 
\@writefile{toc}{\contentsline {section}{\numberline {1}Przeznaczenie}{1}}
\@writefile{toc}{\contentsline {section}{\numberline {2}Wywo\IeC {\l }anie}{1}}
\@writefile{toc}{\contentsline {section}{\numberline {3}B\IeC {\l }\IeC {\k e}dy}{2}}
\@writefile{toc}{\contentsline {section}{\numberline {4}Format danych}{2}}
\@writefile{toc}{\contentsline {section}{\numberline {5}Format danych}{3}}
\@writefile{toc}{\contentsline {section}{\numberline {6}Scenariusz dzia\IeC {\l }ania programu}{3}}
